class_name,label
8904258700489,0
8904083505655,1
717273505070,2
663481107523,3
8902901222951,4
7622201098957,5
8902901226362,6
8901725121242,7
785939102963,8
8901725971281,9
8008698013021,10
8901071701969,11
8904090903659,12
5740900804302,13
8410522004820,14
8904389602331,15
3412290040715,16
8904043926629,17
8902579000387,18
8901491001113,19
8904067702599,20
16000275171,21
8901155108110,22
8904168500018,23
8903622001580,24
5000325048904,25
8901192107626,26
7610700922491,27
3800205877325,28
8076809529433,29
8904039701094,30
8901491001069,31
5011563001880,32
8901088034616,33
8902710500516,34
8901548100110,35
811307031747,36
8901491366052,37
3800205875307,38
8902901222722,39
8904039700097,40
8901725928049,41
8901030825668,42
694642604247,43
8901157025194,44
8901071701389,45
8901304269877,46
8901192108029,47
8854761800346,48
8904406197161,49
8711000279380,50
8906002007332,51
8906005381262,52
8906004620171,53
8902433002809,54
8901220473556,55
783970889546,56
8904083505044,57
4201115722245,58
8904043926308,59
745114486486,60
783970889485,61
8901012166680,62
8710448563938,63
8902080504046,64
7622300864057,65
690225101172,66
8902433002779,67
8902766933702,68
492865162,69
5010545000750,70
8901808004776,71
7622210818478,72
6927687814062,73
8904043902326,74
8906002005826,75
8888056300006,76
8904134009774,77
8801073110502,78
8904117211026,79
769807171657,80
8000380154197,81
16000275799,82
8901063032422,83
8850058008358,84
645175521556,85
8904132919389,86
8901071702898,87
8901512540409,88
8410076430175,89
8902080013302,90
50184453,91
4037719067211,92
8000380191574,93
8904406197468,94
8850291111518,95
7622201710576,96
6291003005855,97
8904304376958,98
8904134009361,99
8904258700182,100
8888232060700,101
8904043927299,102
8902901232363,103
8902433003554,104
8901012162033,105
8850291110832,106
8901725116095,107
8420701102025,108
4895148522103,109
4006424022341,110
8410376043365,111
6297000107004,112
787099815752,113
8033993044883,114
6291003005602,115
690225301077,116
8858135012021,117
8901399009518,118
8904132922204,119
701098259232,120
8000380147809,121
8904258701158,122
8901725132804,123
8902901231991,124
801541520633,125
8906002005796,126
8904272600543,127
8901262200233,128
8901707000688,129
8904272900094,130
8000500399200,131
8904149634558,132
4000539222009,133
8904132919440,134
7622201150419,135
8410179100012,136
6924392068346,137
8906000610725,138
492580243,139
8901071731942,140
8004800003416,141
8901123001306,142
8410679234514,143
6942836717933,144
8904389602300,145
8850058008365,146
493625639,147
8901157045161,148
8904258701318,149
8901888005748,150
712073959061,151
5017726171988,152
5038135181009,153
6291003097904,154
8904132929616,155
8858135000158,156
8904132917071,157
8901396112006,158
492911684,159
492865168,160
5034795003514,161
787099822415,162
6941349559436,163
8901450007361,164
8904134022834,165
8901725119126,166
712190830397,167
701098245471,168
8009167192513,169
8906001051619,170
5000328123301,171
8901707002019,172
8902710205206,173
8906000610633,174
8901526102655,175
8858135000417,176
8904083505488,177
615068642538,178
8904134009613,179
8902901224283,180
6941349559580,181
8888232013126,182
8850058009218,183
8904039700264,184
637793008953,185
8904018601018,186
3412290023800,187
8888232060205,188
5034795001114,189
5034795002210,190
3800020492598,191
7622201423131,192
853403000197,193
8901155103320,194
8901595963355,195
5060169982017,196
8902080285020,197
8901071701952,198
8809171520766,199
712190830410,200
8904039700035,201
7622201150242,202
8901262152273,203
8902901034356,204
653801469929,205
787099815691,206
8901526101030,207
8413178123129,208
4901670110517,209
8000500009673,210
8904083500698,211
8902901232806,212
8901786100507,213
7622300761363,214
8850291211577,215
814784025780,216
8000139910159,217
606314928681,218
80001072,219
8904039701186,220
712073959153,221
8901030825729,222
3046920029674,223
8901155132214,224
701098265899,225
8904043927220,226
6924299389636,227
6281024110089,228
8008698010051,229
5410126306286,230
8904083300625,231
8713638012759,232
4009900522120,233
8906000920275,234
8902901222654,235
8004800003409,236
8906000212240,237
8904018311115,238
8902901034226,239
8904258702117,240
8904272600291,241
64144033164,242
8901304233786,243
8904117216014,244
3800205870517,245
8888056820016,246
8901526101023,247
8902901224023,248
8410522004813,249
5060929290215,250
8902901222685,251
8903555800618,252
8901725952204,253
801541041008,254
8000500227848,255
8901207004544,256
8906005670571,257
492911682,258
8902901224108,259
8902433000232,260
801541520510,261
8901725950101,262
8809311915704,263
610708495932,264
5000168032474,265
5030544903159,266
6946431800625,267
8413178301305,268
3184030003488,269
8901808000044,270
8901786161003,271
8901786280254,272
8901063146211,273
706502590079,274
6924392026124,275
8888056605606,276
8901304269839,277
5030544904101,278
8906004620157,279
787099825416,280
8901192219220,281
801541040438,282
5740900832305,283
8904251199327,284
8902901223286,285
8000146501135,286
5000168208855,287
8906000610701,288
8901088139199,289
8901662024538,290
8436015881921,291
701098237032,292
607816267247,293
8902901223613,294
6946431800335,295
8901088150712,296
6941349558293,297
8904272900087,298
8901030877308,299
8904134012880,300
8904272904597,301
8902901222647,302
8901512543400,303
8904256005166,304
5021427906244,305
8904004404647,306
8906005381514,307
8904272600871,308
8904240709872,309
8004323110844,310
8904082800492,311
8906005381521,312
8904043927152,313
492407446,314
8904018621627,315
80820994,316
492407465,317
8901571005666,318
8901808004769,319
8904083500711,320
8901548100127,321
8888077102092,322
7622210462534,323
8850291101878,324
7622201690472,325
841541000025,326
6941349559658,327
5438077849546,328
8000380156573,329
8801073114814,330
8901548100400,331
639853923220,332
690225302418,333
841541000100,334
7613287182876,335
8901491001045,336
492407434,337
8901393019117,338
7622210818447,339
8906001020424,340
8901725115432,341
8902901222272,342
811307030917,343
8901058868647,344
8801043054768,345
8855815002419,346
8902901027853,347
712073958989,348
492911677,349
8901725106928,350
8904132919426,351
8904134009835,352
8076809513739,353
8901808000785,354
784927149447,355
5038135176029,356
810001610050,357
3800233070231,358
787099825591,359
8901393019452,360
7610700948347,361
8901262080101,362
8901088109536,363
8901595971251,364
5410126716016,365
7610400013857,366
21009187011,367
5032722305892,368
801541508419,369
8033993044876,370
8902433003134,371
8904067709840,372
8904083504870,373
8850291530463,374
8901088129824,375
8858135000615,376
7613036961721,377
8904272900070,378
8902901223064,379
6221007004066,380
4792175074080,381
5000127780064,382
8904272901640,383
8901207014642,384
8904272900285,385
8033993041578,386
8904083516590,387
8904083500636,388
8901042956008,389
7622210403919,390
811307030399,391
8901192300546,392
8902579000912,393
5032722314856,394
8901512500403,395
8904406197451,396
492911681,397
8901764042805,398
8000500257203,399
8906000610206,400
72632330916,401
637793010895,402
8901030684623,403
8901808000396,404
8902901011388,405
8901095004015,406
22000109040,407
8904083302100,408
785939102840,409
41042205,410
8901707002026,411
8904084802104,412
5000168034850,413
8901192212115,414
841541001107,415
7622201432249,416
717273505230,417
8904132917040,418
8901304233717,419
8413178368377,420
5021254904864,421
8902579103187,422
701098285170,423
769807171589,424
8901725003791,425
8904134009293,426
8902901027846,427
8901648025320,428
8904089923415,429
8901248702041,430
5038135176036,431
769807171626,432
5901588018874,433
8904313300340,434
8719189419030,435
4260307633806,436
5011417552858,437
8904313301859,438
8902901225068,439
5901588018850,440
8904272900162,441
663481107493,442
8904132917057,443
8901304269778,444
5201168215298,445
8906005381293,446
7622201423278,447
712073958927,448
8904083514084,449
701098260399,450
8905110002482,451
5010853247656,452
492407432,453
5060494190088,454
8901725003128,455
610708495826,456
8904083505938,457
735980999876,458
4000539395628,459
7610400068529,460
8904134024661,461
8413178370257,462
8858135005634,463
8904004401134,464
8901396040804,465
8901262020541,466
8003440983379,467
663481107509,468
814784026503,469
8888002064006,470
6291003096433,471
8901012162026,472
637793024540,473
8902433003196,474
5060079080087,475
8888056000258,476
8901808000020,477
8906000210628,478
8902901224801,479
749390948171,480
5438077849553,481
8901023015397,482
3395328120941,483
8801073114531,484
8901786080502,485
787099825614,486
8902080013296,487
492865160,488
8902901223965,489
5011673106918,490
8906004863844,491
8901808000495,492
801541520558,493
701098245440,494
8901719120992,495
8904134009224,496
814784026466,497
5011417565209,498
8851978918673,499
4002448086079,500
8904055104923,501
8901030684616,502
8901648092612,503
38000844997,504
8902901222210,505
80892564,506
841541001206,507
8904145911394,508
8902433002625,509
8901512630506,510
8901058895230,511
8902901225150,512
6942836718985,513
5011673141339,514
884912281081,515
8850291103322,516
4201115722917,517
8901399005992,518
8850291100512,519
8901648014843,520
5038135185007,521
492580245,522
7622300434472,523
8902901224382,524
4037719657290,525
8902901066463,526
8901023015274,527
8410179008059,528
8901037255024,529
6941349558330,530
8904039700110,531
8902901223903,532
6926427659130,533
3046920010047,534
8000380140565,535
787099825386,536
8902901222531,537
753421310059,538
8902167000089,539
8904067709482,540
8901526100552,541
8901071301107,542
8850291211409,543
5010338101374,544
607816267278,545
8902901034431,546
8000380192588,547
8906000920015,548
492407449,549
8901262151306,550
8004323110707,551
4023300852007,552
3073780543989,553
8901526100576,554
8888118630423,555
3046920044677,556
6291003096112,557
8906000920336,558
493031923,559
4009900525978,560
8901063401280,561
8902901224269,562
50184385,563
80879367,564
8904132913639,565
8904109450211,566
801541520688,567
8904083500650,568
8850632200031,569
5053990140220,570
7622210400291,571
641606975547,572
8901042957968,573
4796008920070,574
8000380191628,575
8888077102023,576
8904004400779,577
4901670110500,578
8901262151726,579
8901262151863,580
737534800058,581
8904083500568,582
8436000037807,583
8801073114548,584
6924691356533,585
8901707000718,586
8904083506119,587
8858135052065,588
8902766934044,589
8904134024166,590
810001613341,591
8801045524153,592
8901157045086,593
8901262180016,594
8906005670250,595
8906000212004,596
8000500394854,597
8901512680204,598
8901063091023,599
8902766939926,600
491585966,601
8850291211607,602
610708496007,603
811307030504,604
5010853218847,605
5010853233567,606
8901023007804,607
5010338300111,608
8000380201600,609
8904083304036,610
5000328475905,611
493180365,612
6291003000157,613
717273703032,614
8000146500138,615
811307030498,616
8904145911622,617
8008698012819,618
8888056605101,619
8904043926117,620
8901042968193,621
8901063146204,622
5032722313910,623
5010508188051,624
8851019500720,625
8904406242090,626
8888232062919,627
8002270716522,628
7622201423230,629
8904004402810,630
5012035928476,631
720495922327,632
8858135040116,633
3245310010005,634
8906005502896,635
8901396341604,636
8901707001975,637
8000380192618,638
8888002067007,639
8901399337017,640
884912273116,641
8901063032484,642
6291003102905,643
637793001039,644
8902901223767,645
8851019210223,646
38000316104,647
8904134009842,648
5711953113529,649
8904406196430,650
5000112641516,651
8901088034593,652
8902710500028,653
690225303903,654
7622201452674,655
8410179007519,656
8901262120005,657
5011555041023,658
8901707001999,659
759195921644,660
8901207001635,661
7622201431594,662
8901138505530,663
7622201442828,664
5010853194561,665
8904150500811,666
493625507,667
8901707002002,668
8904083310129,669
8713638037912,670
5010545001986,671
8004323110813,672
6291003096204,673
8904134009170,674
610708496045,675
8888232063817,676
6941349514282,677
8906005670106,678
8904272900025,679
6902114779091,680
3168930166078,681
80001249,682
8008698010402,683
757528008833,684
8033993041196,685
8901088155458,686
8888056604012,687
637793000933,688
701098252929,689
4104220081262,690
8904368400071,691
80847557,692
8902901222494,693
8904132912779,694
4006424022365,695
8801073113312,696
8901262010344,697
5010338300128,698
6941349559443,699
6941349559542,700
6941349558323,701
8902710100150,702
5032678006560,703
8901537006010,704
8904272904634,705
8851613003573,706
8801045352107,707
8901786121007,708
4900298465849,709
5011563623310,710
4000417021007,711
80177425,712
8901042956275,713
814784025766,714
8000380141548,715
4000539130007,716
6009606260263,717
8904018311023,718
8904168500100,719
8000380004966,720
492580242,721
8904406170508,722
8901483000438,723
8904090903741,724
8858135000011,725
8076809547826,726
8901304269822,727
8901155406315,728
8902901222586,729
8904090903789,730
8901396513704,731
8904042316018,732
8901764241253,733
5780220104010,734
6946431800281,735
8904117211019,736
8850291211553,737
769807171701,738
8906000431023,739
8902901223170,740
8906002486335,741
8904043926957,742
639853923558,743
5000328902616,744
492865159,745
8904132918535,746
8901537075863,747
8901764032158,748
8904083500612,749
8904004402117,750
8901030704680,751
8906000920305,752
8901595873241,753
663481107530,754
8904272904504,755
8000380186358,756
8902766940151,757
492407436,758
8901725114084,759
8904018626226,760
8902901223026,761
4005292002998,762
6291003005657,763
8904132925519,764
5701638144115,765
8901088129817,766
8902901224856,767
492407450,768
713091115859,769
8901063014299,770
89006702,771
8436015880139,772
8901808004561,773
8902901221787,774
3073780968508,775
701098294462,776
8901207021206,777
8901042956015,778
8902901226867,779
8901786151004,780
8904083506379,781
7613036963039,782
8904132919556,783
8902901223422,784
8901088002851,785
8904083505570,786
8000380202621,787
3800233070934,788
8901764012709,789
8850987101083,790
7613287220479,791
89007662,792
5701638143927,793
8436015880283,794
5941021001247,795
701098245518,796
8906004620256,797
